DSC 223 - Fall 2022 - Block 2 - Hypothesis testing
…
This is getting boring…

We need a way to automate this process!

Using tidymodels to generate the null distribution

.small[]

Response: outcome (factor)
Null Hypothesis: point
# A tibble: 100 x 2
  replicate  stat
      <dbl> <dbl>
1         1 0.161
2         2 0.081
3         3 0.161
4         4 0.145
5         5 0.097
6         6 0.145
# ... with 94 more rows
…
