DSC 223 - Fall 2022 - Block 2 - Doing data science
…
Try the easy solution first

.panelset[]

Then go deeper…

.panelset[]

The squirrel is staring at me!

squirrels %>%
  filter(str_detect(other_interactions, "star")) %>%
  select(shift, age, other_interactions)

# A tibble: 11 x 3
  shift age   other_interactions                                 
  <chr> <chr> <chr>                                              
1 AM    Adult staring at us                                      
2 PM    Adult he took 2 steps then turned and stared at me       
3 PM    Adult stared                                             
4 PM    Adult stared                                             
5 PM    Adult stared                                             
6 PM    Adult stared & then went back up tree—then ran to differ~
# ... with 5 more rows
…
