DSC 223 - Fall 2022 - Block 2 - Grammar of data wrangling
…
Select a single column

View only lead_time (number of days between booking and arrival date):

select(hotels, lead_time)

# A tibble: 119,390 x 1
  lead_time
      <dbl>
1       342
2       737
3         7
4        13
5        14
6        14
# ... with 119,384 more rows
…
.pull-left[] .pull-right[ - Start with the function (a verb): select() - First argument: data frame we’re working with , hotels]

Select a single column

.pull-left[] .pull-right[ - Start with the function (a verb): select() - First argument: data frame we’re working with , hotels - Second argument: variable we want to select, lead_time]

Select a single column

.pull-left[] .pull-right[ - Start with the function (a verb): select() - First argument: data frame we’re working with , hotels - Second argument: variable we want to select, lead_time - Result: data frame with 119390 rows and 1 column]

.tip[ dplyr functions always expect a data frame and always yield a data frame.]

select(hotels, lead_time)

# A tibble: 119,390 x 1
  lead_time
      <dbl>
1       342
2       737
3         7
4        13
5        14
6        14
# ... with 119,384 more rows
…
