DSC 223 - Fall 2022 - Block 2 - Prediction and overfitting
…
Fit a model to the training dataset

email_fit <- logistic_reg() %>%
  set_engine("glm") %>%
  fit(spam ~ . - from - sent_email - viagra, data = train_data, family = "binomial") #<<

Warning: glm.fit: fitted probabilities numerically 0 or 1 occurred

.small[]

Predict outcome on the testing dataset

predict(email_fit, test_data)

# A tibble: 785 x 1
  .pred_class
  <fct>      
1 0          
2 0          
3 0          
4 0          
5 0          
6 0          
# ... with 779 more rows

Predict probabilities on the testing dataset

email_pred <- predict(email_fit, test_data, type = "prob") %>%
  bind_cols(test_data %>% select(spam, time))

email_pred

# A tibble: 785 x 4
  .pred_0 .pred_1 spam  time               
    <dbl>   <dbl> <fct> <dttm>             
1   0.993 0.00709 0     2012-01-01 11:55:06
2   0.998 0.00181 0     2012-01-01 13:38:32
3   0.981 0.0191  0     2012-01-01 23:42:16
4   0.999 0.00124 0     2012-01-02 09:12:51
5   0.988 0.0121  0     2012-01-02 10:45:36
6   0.830 0.170   0     2012-01-02 15:55:03
# ... with 779 more rows
…
