DSC 223 - Fall 2022 - Block 2 - Importing data
…
.pull-left[] .pull-right[]

.pull-left[ ## readr]

.pull-right[ ## readxl

- read_excel() - read xls or xlsx files - … ]

Reading data

nobel <- read_csv(file = "data/nobel.csv")
nobel

# A tibble: 935 x 26
     id firstname     surname  year categ~1 affil~2 city  country
  <dbl> <chr>         <chr>   <dbl> <chr>   <chr>   <chr> <chr>  
1     1 Wilhelm Conr~ Röntgen  1901 Physics Munich~ Muni~ Germany
2     2 Hendrik A.    Lorentz  1902 Physics Leiden~ Leid~ Nether~
3     3 Pieter        Zeeman   1902 Physics Amster~ Amst~ Nether~
4     4 Henri         Becque~  1903 Physics École ~ Paris France 
5     5 Pierre        Curie    1903 Physics École ~ Paris France 
6     6 Marie         Curie    1903 Physics <NA>    <NA>  <NA>   
# ... with 929 more rows, 18 more variables: born_date <date>,
#   died_date <date>, gender <chr>, born_city <chr>,
#   born_country <chr>, born_country_code <chr>,
#   died_city <chr>, died_country <chr>,
#   died_country_code <chr>, overall_motivation <chr>,
#   share <dbl>, motivation <chr>, born_country_original <chr>,
#   born_city_original <chr>, died_country_original <chr>, ...
…
