DSC 223 - Fall 2022 - Block 2 - Working with a single data frame
…
Observations: Each row represents a hotel booking

hotels <- read_csv("data/hotels.csv")

class: middle

select, arrange, and slice

select to keep variables

hotels %>%
  select(hotel, lead_time) #<<

# A tibble: 119,390 x 2
  hotel        lead_time
  <chr>            <dbl>
1 Resort Hotel       342
2 Resort Hotel       737
3 Resort Hotel         7
4 Resort Hotel        13
5 Resort Hotel        14
6 Resort Hotel        14
# ... with 119,384 more rows

select to exclude variables

.small[]

select a range of variables

hotels %>%
  select(hotel:arrival_date_month) #<<

# A tibble: 119,390 x 5
  hotel        is_canceled lead_time arrival_date_year arrival_~1
  <chr>              <dbl>     <dbl>             <dbl> <chr>     
1 Resort Hotel           0       342              2015 July      
2 Resort Hotel           0       737              2015 July      
3 Resort Hotel           0         7              2015 July      
4 Resort Hotel           0        13              2015 July      
5 Resort Hotel           0        14              2015 July      
6 Resort Hotel           0        14              2015 July      
# ... with 119,384 more rows, and abbreviated variable name
#   1: arrival_date_month

select variables with certain characteristics

hotels %>%
  select(starts_with("arrival")) #<<

# A tibble: 119,390 x 4
  arrival_date_year arrival_date_month arrival_date_wee~1 arriv~2
              <dbl> <chr>                           <dbl>   <dbl>
1              2015 July                               27       1
2              2015 July                               27       1
3              2015 July                               27       1
4              2015 July                               27       1
5              2015 July                               27       1
6              2015 July                               27       1
# ... with 119,384 more rows, and abbreviated variable names
#   1: arrival_date_week_number, 2: arrival_date_day_of_month

select variables with certain characteristics

hotels %>%
  select(ends_with("type")) #<<

# A tibble: 119,390 x 4
  reserved_room_type assigned_room_type deposit_type customer_t~1
  <chr>              <chr>              <chr>        <chr>       
1 C                  C                  No Deposit   Transient   
2 C                  C                  No Deposit   Transient   
3 A                  C                  No Deposit   Transient   
4 A                  A                  No Deposit   Transient   
5 A                  A                  No Deposit   Transient   
6 A                  A                  No Deposit   Transient   
# ... with 119,384 more rows, and abbreviated variable name
#   1: customer_type
…
filter to select a subset of rows

.midi[]

filter for many conditions at once

hotels %>%
  filter( 
    adults == 0,     #<<
    children >= 1    #<<
    ) %>% 
  select(adults, babies, children)

# A tibble: 223 x 3
  adults babies children
   <dbl>  <dbl>    <dbl>
1      0      0        3
2      0      0        2
3      0      0        2
4      0      0        2
5      0      0        2
6      0      0        3
# ... with 217 more rows

filter for more complex conditions

# bookings with no adults and some children or babies in the room
hotels %>%
  filter( 
    adults == 0,     
    children >= 1 | babies >= 1     # | means or  #<<
    ) %>%
  select(adults, babies, children)

# A tibble: 223 x 3
  adults babies children
   <dbl>  <dbl>    <dbl>
1      0      0        3
2      0      0        2
3      0      0        2
4      0      0        2
5      0      0        2
6      0      0        3
# ... with 217 more rows
…
.your-turn[ ### Your turn!]

class: middle

mutate

mutate to add a new variable

hotels %>%
  mutate(little_ones = children + babies) %>% #<<
  select(children, babies, little_ones) %>%
  arrange(desc(little_ones))

# A tibble: 119,390 x 3
  children babies little_ones
     <dbl>  <dbl>       <dbl>
1       10      0          10
2        0     10          10
3        0      9           9
4        2      1           3
5        2      1           3
6        2      1           3
# ... with 119,384 more rows
…
