DSC 223 - Fall 2022 - Block 2 - Bootstrapping
…
The bootstrap sample

.question[ How many observations are there in boot_df? What does each observation represent?]

boot_df

Response: rent (numeric)
# A tibble: 15,000 x 2
  replicate  stat
      <int> <dbl>
1         1 1793.
2         2 1938.
3         3 2175 
4         4 2159.
5         5 2084 
6         6 1761 
# ... with 14,994 more rows
…
