DSC 223 - Fall 2022 - Block 2 - Cross validation
…
 datasciencebox.org 

class: middle

Data and exploration

background-image: url(“img/the-office.jpeg”) class: middle

Data

office_ratings <- read_csv("data/office_ratings.csv")
office_ratings

# A tibble: 188 x 6
  season episode title         imdb_rating total_votes air_date  
   <dbl>   <dbl> <chr>               <dbl>       <dbl> <date>    
1      1       1 Pilot                 7.6        3706 2005-03-24
2      1       2 Diversity Day         8.3        3566 2005-03-29
3      1       3 Health Care           7.9        2983 2005-04-05
4      1       4 The Alliance          8.1        2886 2005-04-12
5      1       5 Basketball            8.4        3179 2005-04-19
6      1       6 Hot Girl              7.8        2852 2005-04-26
# ... with 182 more rows
…
.panelset[ .panel[.panel-name[Code]] .panel[.panel-name[Output] .small[]]]

class: middle

Evaluate model

Make predictions for training data

office_train_pred <- predict(office_fit, office_train) %>%
  bind_cols(office_train %>% select(imdb_rating, title))

office_train_pred

# A tibble: 141 x 3
  .pred imdb_rating title            
  <dbl>       <dbl> <chr>            
1  7.90         8.1 Garden Party     
2  8.43         7.9 The Chump        
3  7.81         7.1 Here Comes Treble
4  7.94         6.7 Get the Girl     
5  7.92         7.9 Tallahassee      
6  8.29         7.7 The Inner Circle 
# ... with 135 more rows
…
class: middle

.hand[ .light-blue[ but, really, who cares about predictions on .pink[training] data?]]

Make predictions for testing data

office_test_pred <- predict(office_fit, office_test) %>%
  bind_cols(office_test %>% select(imdb_rating, title))

office_test_pred

# A tibble: 47 x 3
  .pred imdb_rating title          
  <dbl>       <dbl> <chr>          
1  8.52         8.4 Office Olympics
2  8.54         8.6 The Client     
3  8.90         8.8 Christmas Party
4  8.71         9   The Injury     
5  8.50         8.2 Boys and Girls 
6  8.46         8.4 Dwight's Speech
# ... with 41 more rows
…
