u4-d07-prediction-overfitting
…
Coefficients:
 (Intercept)  to_multiple1            cc          time         image        attach        dollar  
  -9.867e+01    -2.505e+00     1.944e-02     7.396e-08    -2.854e+00     5.070e-01    -6.440e-02  
   winneryes       inherit      password      num_char   line_breaks       format1      re_subj1  
   2.170e+00     4.499e-01    -7.065e-01     5.870e-02    -5.420e-03    -9.017e-01    -2.995e+00  
exclaim_subj  urgent_subj1  exclaim_mess   numbersmall     numberbig  
   1.002e-01     3.572e+00     1.009e-02    -8.518e-01    -1.329e-01  

Degrees of Freedom: 3135 Total (i.e. Null);  3117 Residual
Null Deviance:      1974 
Residual Deviance: 1447     AIC: 1485

Predict outcome on the testing dataset

# A tibble: 785 x 1
   .pred_class
   <fct>      
 1 0          
 2 0          
 3 0          
 4 0          
 5 0          
 6 0          
 7 0          
 8 0          
 9 0          
10 0          
# ... with 775 more rows

Predict probabilities on the testing dataset

# A tibble: 785 x 4
   .pred_0 .pred_1 spam  time               
     <dbl>   <dbl> <fct> <dttm>             
 1   0.993 0.00709 0     2012-01-01 11:55:06
 2   0.998 0.00181 0     2012-01-01 13:38:32
 3   0.981 0.0191  0     2012-01-01 23:42:16
 4   0.999 0.00124 0     2012-01-02 09:12:51
 5   0.988 0.0121  0     2012-01-02 10:45:36
 6   0.830 0.170   0     2012-01-02 15:55:03
 7   0.959 0.0410  0     2012-01-02 19:07:17
 8   0.861 0.139   0     2012-01-02 23:41:35
 9   0.938 0.0617  0     2012-01-03 10:02:35
10   0.902 0.0983  0     2012-01-03 05:14:51
# ... with 775 more rows

A closer look at predictions

# A tibble: 785 x 4
   .pred_0 .pred_1 spam  time               
     <dbl>   <dbl> <fct> <dttm>             
 1  0.0972   0.903 1     2012-02-13 06:15:00
 2  0.167    0.833 0     2012-01-27 14:05:06
 3  0.175    0.825 1     2012-02-29 23:40:27
 4  0.267    0.733 1     2012-03-17 05:13:27
 5  0.317    0.683 1     2012-03-21 07:33:12
 6  0.374    0.626 1     2012-02-08 02:00:05
 7  0.386    0.614 0     2012-01-30 08:20:29
 8  0.403    0.597 1     2012-01-07 10:11:49
 9  0.462    0.538 1     2012-03-06 05:46:20
10  0.463    0.537 0     2012-02-17 16:54:16
# ... with 775 more rows
…
