DSC 223 - Fall 2022 - Block 2 - Functions and Iteration
…
End with 🛑

# A tibble: 218 x 6
   title                                  date       locat~1 abstr~2 text  url  
   <chr>                                  <date>     <chr>   <chr>   <chr> <chr>
 1 Coronavirus (COVID-19) update: First ~ 2021-04-20 St And~ Statem~ "Goo~ http~
 2 Coronavirus (COVID-19) update: First ~ 2021-04-13 St And~ Statem~ "Tha~ http~
 3 Coronavirus (COVID-19) update: First ~ 2021-04-06 St And~ Statem~ "Goo~ http~
 4 Coronavirus (COVID-19) update: First ~ 2021-03-30 St And~ Statem~ "Tha~ http~
 5 Coronavirus (COVID-19) update: First ~ 2021-03-24 Scotti~ Statem~ "Tha~ http~
 6 Coronavirus (Covid-19) update: First ~ 2021-03-23 The Sc~ Statem~ "Pre~ http~
 7 Coronavirus (COVID-19) update: First ~ 2021-03-18 Scotti~ Statem~ "Tha~ http~
 8 Coronavirus (COVID-19) update: First ~ 2021-03-17 St And~ Statem~ "\nG~ http~
 9 Coronavirus (COVID-19) update: First ~ 2021-03-16 Scotti~ Statem~ "Pre~ http~
10 Coronavirus (COVID-19) update: First ~ 2021-03-15 St And~ Statem~ "\nG~ http~
11 Coronavirus (COVID-19) update: First ~ 2021-03-11 Scotti~ Statem~ "I c~ http~
12 Coronavirus (COVID-19) update: First ~ 2021-03-09 Scotti~ Statem~ "Pre~ http~
13 Coronavirus (COVID-19) update: First ~ 2021-03-05 Scotti~ Parlia~ "Hel~ http~
14 Coronavirus (COVID-19) update: First ~ 2021-03-04 Scotti~ Parlia~ "I w~ http~
15 Coronavirus (COVID-19) update: First ~ 2021-03-02 Scotti~ Statem~ "Pre~ http~
# ... with 203 more rows, and abbreviated variable names 1: location,
#   2: abstract
…
End with 🛑

# A tibble: 218 x 6
   title                                  date       locat~1 abstr~2 text  url  
   <chr>                                  <date>     <chr>   <chr>   <chr> <chr>
 1 Coronavirus (COVID-19) update: First ~ 2021-04-20 St And~ Statem~ "Goo~ http~
 2 Coronavirus (COVID-19) update: First ~ 2021-04-13 St And~ Statem~ "Tha~ http~
 3 Coronavirus (COVID-19) update: First ~ 2021-04-06 St And~ Statem~ "Goo~ http~
 4 Coronavirus (COVID-19) update: First ~ 2021-03-30 St And~ Statem~ "Tha~ http~
 5 Coronavirus (COVID-19) update: First ~ 2021-03-24 Scotti~ Statem~ "Tha~ http~
 6 Coronavirus (Covid-19) update: First ~ 2021-03-23 The Sc~ Statem~ "Pre~ http~
 7 Coronavirus (COVID-19) update: First ~ 2021-03-18 Scotti~ Statem~ "Tha~ http~
 8 Coronavirus (COVID-19) update: First ~ 2021-03-17 St And~ Statem~ "\nG~ http~
 9 Coronavirus (COVID-19) update: First ~ 2021-03-16 Scotti~ Statem~ "Pre~ http~
10 Coronavirus (COVID-19) update: First ~ 2021-03-15 St And~ Statem~ "\nG~ http~
11 Coronavirus (COVID-19) update: First ~ 2021-03-11 Scotti~ Statem~ "I c~ http~
12 Coronavirus (COVID-19) update: First ~ 2021-03-09 Scotti~ Statem~ "Pre~ http~
13 Coronavirus (COVID-19) update: First ~ 2021-03-05 Scotti~ Parlia~ "Hel~ http~
14 Coronavirus (COVID-19) update: First ~ 2021-03-04 Scotti~ Parlia~ "I w~ http~
15 Coronavirus (COVID-19) update: First ~ 2021-03-02 Scotti~ Statem~ "Pre~ http~
# ... with 203 more rows, and abbreviated variable names 1: location,
#   2: abstract
…
Go to each page, scrape speech

Map the scrape_speech() function

to each element of covid_speech_urls

and return a data frame by row binding

covid_speeches <- map_dfr(covid_speech_urls, scrape_speech)

covid_speeches %>%
  print(n = 15)

# A tibble: 218 x 6
   title                                  date       locat~1 abstr~2 text  url  
   <chr>                                  <date>     <chr>   <chr>   <chr> <chr>
 1 Coronavirus (COVID-19) update: First ~ 2021-04-20 St And~ Statem~ "Goo~ http~
 2 Coronavirus (COVID-19) update: First ~ 2021-04-13 St And~ Statem~ "Tha~ http~
 3 Coronavirus (COVID-19) update: First ~ 2021-04-06 St And~ Statem~ "Goo~ http~
 4 Coronavirus (COVID-19) update: First ~ 2021-03-30 St And~ Statem~ "Tha~ http~
 5 Coronavirus (COVID-19) update: First ~ 2021-03-24 Scotti~ Statem~ "Tha~ http~
 6 Coronavirus (Covid-19) update: First ~ 2021-03-23 The Sc~ Statem~ "Pre~ http~
 7 Coronavirus (COVID-19) update: First ~ 2021-03-18 Scotti~ Statem~ "Tha~ http~
 8 Coronavirus (COVID-19) update: First ~ 2021-03-17 St And~ Statem~ "\nG~ http~
 9 Coronavirus (COVID-19) update: First ~ 2021-03-16 Scotti~ Statem~ "Pre~ http~
10 Coronavirus (COVID-19) update: First ~ 2021-03-15 St And~ Statem~ "\nG~ http~
11 Coronavirus (COVID-19) update: First ~ 2021-03-11 Scotti~ Statem~ "I c~ http~
12 Coronavirus (COVID-19) update: First ~ 2021-03-09 Scotti~ Statem~ "Pre~ http~
13 Coronavirus (COVID-19) update: First ~ 2021-03-05 Scotti~ Parlia~ "Hel~ http~
14 Coronavirus (COVID-19) update: First ~ 2021-03-04 Scotti~ Parlia~ "I w~ http~
15 Coronavirus (COVID-19) update: First ~ 2021-03-02 Scotti~ Statem~ "Pre~ http~
# ... with 203 more rows, and abbreviated variable names 1: location,
#   2: abstract
…
