DSC 223 - Fall 2022 - Block 2 - Multiple Linear Regression, Prediction, and Overfitting
…
sent_email: Indicator for whether the sender had been sent an email in the last 30 days

train_data %>%
  count(spam, sent_email)

# A tibble: 3 x 3
  spam  sent_email     n
  <fct> <fct>      <int>
1 0     0           1972
2 0     1            865
3 1     0            299

Numerical predictors

# A tibble: 22 x 12
   skim_type skim_va~1 spam  n_mis~2 compl~3 numer~4 numer~5 numer~6 numer~7 numer~8 numer~9 numer~*
   <chr>     <chr>     <fct>   <int>   <dbl>   <dbl>   <dbl>   <dbl>   <dbl>   <dbl>   <dbl>   <dbl>
 1 numeric   cc        0           0       1 0.393    2.62         0       0       0       0      68
 2 numeric   cc        1           0       1 0.388    3.25         0       0       0       0      50
 3 numeric   image     0           0       1 0.0536   0.503        0       0       0       0      20
 4 numeric   image     1           0       1 0.00334  0.0578       0       0       0       0       1
 5 numeric   attach    0           0       1 0.124    0.775        0       0       0       0      21
 6 numeric   attach    1           0       1 0.227    0.620        0       0       0       0       2
 7 numeric   dollar    0           0       1 1.56     5.33         0       0       0       0      64
 8 numeric   dollar    1           0       1 0.779    3.01         0       0       0       0      36
 9 numeric   inherit   0           0       1 0.0352   0.216        0       0       0       0       6
10 numeric   inherit   1           0       1 0.0702   0.554        0       0       0       0       9
# ... with 12 more rows, and abbreviated variable names 1: skim_variable, 2: n_missing,
#   3: complete_rate, 4: numeric.mean, 5: numeric.sd, 6: numeric.p0, 7: numeric.p25,
#   8: numeric.p50, 9: numeric.p75, *: numeric.p100
…
Degrees of Freedom: 3135 Total (i.e. Null);  3117 Residual
Null Deviance:      1974 
Residual Deviance: 1447     AIC: 1485

Predict outcome on the testing dataset

predict(email_fit, test_data)

# A tibble: 785 x 1
   .pred_class
   <fct>      
 1 0          
 2 0          
 3 0          
 4 0          
 5 0          
 6 0          
 7 0          
 8 0          
 9 0          
10 0          
# ... with 775 more rows

Predict probabilities on the testing dataset

email_pred <- predict(email_fit, test_data, type = "prob") %>%
  bind_cols(test_data %>% select(spam, time))

email_pred

# A tibble: 785 x 4
   .pred_0 .pred_1 spam  time               
     <dbl>   <dbl> <fct> <dttm>             
 1   0.993 0.00709 0     2012-01-01 11:55:06
 2   0.998 0.00181 0     2012-01-01 13:38:32
 3   0.981 0.0191  0     2012-01-01 23:42:16
 4   0.999 0.00124 0     2012-01-02 09:12:51
 5   0.988 0.0121  0     2012-01-02 10:45:36
 6   0.830 0.170   0     2012-01-02 15:55:03
 7   0.959 0.0410  0     2012-01-02 19:07:17
 8   0.861 0.139   0     2012-01-02 23:41:35
 9   0.938 0.0617  0     2012-01-03 10:02:35
10   0.902 0.0983  0     2012-01-03 05:14:51
# ... with 775 more rows

A closer look at predictions

email_pred %>%
  arrange(desc(.pred_1)) %>%
  print(n = 10)

# A tibble: 785 x 4
   .pred_0 .pred_1 spam  time               
     <dbl>   <dbl> <fct> <dttm>             
 1  0.0972   0.903 1     2012-02-13 06:15:00
 2  0.167    0.833 0     2012-01-27 14:05:06
 3  0.175    0.825 1     2012-02-29 23:40:27
 4  0.267    0.733 1     2012-03-17 05:13:27
 5  0.317    0.683 1     2012-03-21 07:33:12
 6  0.374    0.626 1     2012-02-08 02:00:05
 7  0.386    0.614 0     2012-01-30 08:20:29
 8  0.403    0.597 1     2012-01-07 10:11:49
 9  0.462    0.538 1     2012-03-06 05:46:20
10  0.463    0.537 0     2012-02-17 16:54:16
# ... with 775 more rows
…
