DSC 223 - Fall 2022 - Block 2 - Data classes
…
Make a date

.pull-left[] .pull-right[ - lubridate is the tidyverse-friendly package that makes dealing with dates a little easier - It’s not one of the core tidyverse packages, hence it’s installed with install.packages("tidyverse) but it’s not loaded with it, and needs to be explicitly loaded with library(lubridate)]

class: middle

.hand[.light-blue[ we’re just going to scratch the surface of working with dates in R here…]]

.question[ Calculate and visualise the number of bookings on any given arrival date.]

hotels %>%
  select(starts_with("arrival_"))

# A tibble: 119,390 x 4
  arrival_date_year arrival_date_month arrival_date_wee~1 arriv~2
              <dbl> <chr>                           <dbl>   <dbl>
1              2015 July                               27       1
2              2015 July                               27       1
3              2015 July                               27       1
4              2015 July                               27       1
5              2015 July                               27       1
6              2015 July                               27       1
# ... with 119,384 more rows, and abbreviated variable names
#   1: arrival_date_week_number, 2: arrival_date_day_of_month
…
