DSC 223 - Fall 2022 - Block 2 - Feature engineering
…
Warning: glm.fit: fitted probabilities numerically 0 or 1 occurred

.small[]

Make predictions for test data

email_pred <- predict(email_fit, test_data, type = "prob") %>% 
  bind_cols(test_data) 

Warning: There are new levels in a factor: NA

email_pred

# A tibble: 785 x 23
  .pred_0  .pred_1 spam  to_multiple from     cc sent_email
    <dbl>    <dbl> <fct> <fct>       <fct> <int> <fct>     
1   0.995 0.00451  0     1           1         0 1         
2   0.999 0.00129  0     0           1         1 1         
3   0.969 0.0306   0     0           1         0 0         
4   0.999 0.000816 0     0           1         1 0         
5   0.993 0.00680  0     0           1         4 0         
6   0.852 0.148    0     0           1         0 0         
# ... with 779 more rows, and 16 more variables: time <dttm>,
#   image <dbl>, attach <dbl>, dollar <dbl>, winner <fct>,
#   inherit <dbl>, viagra <dbl>, password <dbl>, num_char <dbl>,
#   line_breaks <int>, format <fct>, re_subj <fct>,
#   exclaim_subj <dbl>, urgent_subj <fct>, exclaim_mess <dbl>,
#   number <fct>
…
