DSC 223 - Fall 2022 - Block 2 - Simpson’s paradox
…
\(P(Admit | Female)\) = 0.304

\(P(Admit | Male)\) = 0.445

Overall gender distribution

.panelset[]

.question[ What can you say about the gender distribution by department ?]

ucbadmit %>%
  count(dept, gender, admit)

# A tibble: 24 x 4
  dept  gender admit        n
  <ord> <fct>  <fct>    <int>
1 A     Female Rejected    19
2 A     Female Admitted    89
3 A     Male   Rejected   313
4 A     Male   Admitted   512
5 B     Female Rejected     8
6 B     Female Admitted    17
# ... with 18 more rows
…
